
0 12 -1 -1 -1 8 -1 -1 -1 -1 -1 -1 -1 -1	22
12 0 13 -1 13 -1 -1 -1 -1 -1 -1	-1 30 -1 -1
-1 13 0	-1 -1 -1 -1 -1 -1 -1 -1	-1 10 -1 -1
-1 -1 -1 0 -1 -1 -1 -1 -1 -1 -1	-1 22 86 19
-1 13 -1 -1 0 13 -1 -1 -1 -1 -1 -1 -1 -1 -1
8 -1 -1 -1 13 0	20 -1 -1 -1 -1 -1 -1 -1 -1
-1 -1 -1 -1 -1 20 0 37 -1 -1 -1 -1 -1 -1 -1
-1 -1 -1 -1 -1 -1 37 0 15 -1 -1	-1 -1 -1 -1
-1 -1 -1 -1 -1 -1 -1 15 0 20 -1	-1 -1 -1 -1
-1 -1 -1 -1 -1 -1 -1 -1	20 0 13	-1 -1 -1 -1
-1 -1 -1 -1 -1 -1 -1 -1	-1 13 0	11 -1 51 -1
-1 -1 -1 -1 -1 -1 -1 -1	-1 -1 11 0 10 -1 -1
-1 30 10 22 -1 -1 -1 -1	-1 -1 -1 10 0 70 -1
-1 -1 -1 86 -1 -1 -1 -1	-1 -1 51 -1 70 0 -1 
22 -1 -1 19 -1 -1 -1 -1	-1 -1 -1 -1 -1 -1 0